\relax 
\providecommand\hyper@newdestlabel[2]{}
\providecommand\HyperFirstAtBeginDocument{\AtBeginDocument}
\HyperFirstAtBeginDocument{\ifx\hyper@anchor\@undefined
\global\let\oldcontentsline\contentsline
\gdef\contentsline#1#2#3#4{\oldcontentsline{#1}{#2}{#3}}
\global\let\oldnewlabel\newlabel
\gdef\newlabel#1#2{\newlabelxx{#1}#2}
\gdef\newlabelxx#1#2#3#4#5#6{\oldnewlabel{#1}{{#2}{#3}}}
\AtEndDocument{\ifx\hyper@anchor\@undefined
\let\contentsline\oldcontentsline
\let\newlabel\oldnewlabel
\fi}
\fi}
\global\let\hyper@last\relax 
\gdef\HyperFirstAtBeginDocument#1{#1}
\providecommand\HyField@AuxAddToFields[1]{}
\providecommand\HyField@AuxAddToCoFields[2]{}
\select@language{english}
\@writefile{toc}{\select@language{english}}
\@writefile{lof}{\select@language{english}}
\@writefile{lot}{\select@language{english}}
\@writefile{toc}{\contentsline {section}{\numberline {1}B test}{1}{section.1}}
\@writefile{lof}{\contentsline {figure}{\numberline {1}{\ignorespaces Model\relax }}{1}{figure.caption.1}}
\@writefile{toc}{\contentsline {subsection}{\numberline {1.1}The Asymptotic Distribution}{2}{subsection.1.1}}
\@writefile{toc}{\contentsline {subsubsection}{\numberline {1.1.1}Compute $\unhbox \voidb@x \hbox {VAR} \left ( \unhbox \voidb@x \hbox {MMD}_i^2 (B) \right )$ }{2}{subsubsection.1.1.1}}
\@writefile{toc}{\contentsline {subsubsection}{\numberline {1.1.2}Compute $ \unhbox \voidb@x \hbox {COV} \left ( \unhbox \voidb@x \hbox {MMD}_i^2 (B) ,\unhbox \voidb@x \hbox { MMD}_j^2(B) \right ) $ }{3}{subsubsection.1.1.2}}
\@writefile{toc}{\contentsline {subsubsection}{\numberline {1.1.3}Compute $ \unhbox \voidb@x \hbox {COV} \left ( \unhbox \voidb@x \hbox {MMD}_i^2 (B) ,\unhbox \voidb@x \hbox { MMD}_j^2(B+k) \right ) $}{4}{subsubsection.1.1.3}}
\@writefile{toc}{\contentsline {subsection}{\numberline {1.2}Experiments with synthetic data}{5}{subsection.1.2}}
\@writefile{lof}{\contentsline {figure}{\numberline {2}{\ignorespaces Mean changes from 0 to 5 from point 1000\relax }}{5}{figure.caption.2}}
\@writefile{lof}{\contentsline {figure}{\numberline {3}{\ignorespaces Variance changes from $I$ to $5I$ from point 1000\relax }}{6}{figure.caption.3}}
\@writefile{lof}{\contentsline {figure}{\numberline {4}{\ignorespaces Exponential rate changes from 1 to 5 from point 1000\relax }}{6}{figure.caption.4}}
