\BOOKMARK [1][-]{section.1}{Background}{}% 1
\BOOKMARK [1][-]{section.2}{B test}{}% 2
\BOOKMARK [2][-]{subsection.2.1}{The Asymptotic Distribution}{section.2}% 3
\BOOKMARK [3][-]{subsubsection.2.1.1}{ Var \( MMDi2\(B\) \) }{subsection.2.1}% 4
\BOOKMARK [3][-]{subsubsection.2.1.2}{ Cov \( MMDi2\(B\), \040MMDi+s2 \(B\) \) }{subsection.2.1}% 5
\BOOKMARK [3][-]{subsubsection.2.1.3}{ Cov \( MMDi2\(B\), \040MMDi+s2 \(B+k\) \) }{subsection.2.1}% 6
\BOOKMARK [3][-]{subsubsection.2.1.4}{Compute VAR \( MMDi2 \(B\) \) }{subsection.2.1}% 7
\BOOKMARK [3][-]{subsubsection.2.1.5}{Compute \040COV \( MMDi2 \(B\) , MMDj2\(B\) \) \040}{subsection.2.1}% 8
\BOOKMARK [3][-]{subsubsection.2.1.6}{Compute \040COV \( MMDi2 \(B\) , MMDj2\(B+k\) \) }{subsection.2.1}% 9
