\relax 
\providecommand\hyper@newdestlabel[2]{}
\providecommand\HyperFirstAtBeginDocument{\AtBeginDocument}
\HyperFirstAtBeginDocument{\ifx\hyper@anchor\@undefined
\global\let\oldcontentsline\contentsline
\gdef\contentsline#1#2#3#4{\oldcontentsline{#1}{#2}{#3}}
\global\let\oldnewlabel\newlabel
\gdef\newlabel#1#2{\newlabelxx{#1}#2}
\gdef\newlabelxx#1#2#3#4#5#6{\oldnewlabel{#1}{{#2}{#3}}}
\AtEndDocument{\ifx\hyper@anchor\@undefined
\let\contentsline\oldcontentsline
\let\newlabel\oldnewlabel
\fi}
\fi}
\global\let\hyper@last\relax 
\gdef\HyperFirstAtBeginDocument#1{#1}
\providecommand\HyField@AuxAddToFields[1]{}
\providecommand\HyField@AuxAddToCoFields[2]{}
\select@language{english}
\@writefile{toc}{\select@language{english}}
\@writefile{lof}{\select@language{english}}
\@writefile{lot}{\select@language{english}}
\@writefile{toc}{\contentsline {section}{\numberline {1}Background}{1}{section.1}}
\@writefile{toc}{\contentsline {section}{\numberline {2}B test}{2}{section.2}}
\@writefile{lof}{\contentsline {figure}{\numberline {1}{\ignorespaces Model\relax }}{2}{figure.caption.1}}
\@writefile{toc}{\contentsline {subsection}{\numberline {2.1}The Asymptotic Distribution}{3}{subsection.2.1}}
\@writefile{toc}{\contentsline {subsubsection}{\numberline {2.1.1}$ \unhbox \voidb@x \hbox {Var} \left ( \unhbox \voidb@x \hbox {MMD}_i^2(B) \right ) $}{3}{subsubsection.2.1.1}}
\@writefile{toc}{\contentsline {subsubsection}{\numberline {2.1.2}$ \unhbox \voidb@x \hbox {Cov} \left ( \unhbox \voidb@x \hbox {MMD}_i^2(B), \unhbox \voidb@x \hbox { MMD}_{i+s}^2 (B) \right ) $}{3}{subsubsection.2.1.2}}
\@writefile{toc}{\contentsline {subsubsection}{\numberline {2.1.3}$ \unhbox \voidb@x \hbox {Cov} \left ( \unhbox \voidb@x \hbox {MMD}_i^2(B), \unhbox \voidb@x \hbox { MMD}_{i+s}^2 (B+k) \right ) $}{4}{subsubsection.2.1.3}}
\@writefile{toc}{\contentsline {subsubsection}{\numberline {2.1.4}Compute $\unhbox \voidb@x \hbox {VAR} \left ( \unhbox \voidb@x \hbox {MMD}_i^2 (B) \right )$ }{10}{subsubsection.2.1.4}}
\@writefile{toc}{\contentsline {subsubsection}{\numberline {2.1.5}Compute $ \unhbox \voidb@x \hbox {COV} \left ( \unhbox \voidb@x \hbox {MMD}_i^2 (B) ,\unhbox \voidb@x \hbox { MMD}_j^2(B) \right ) $ }{11}{subsubsection.2.1.5}}
\@writefile{toc}{\contentsline {subsubsection}{\numberline {2.1.6}Compute $ \unhbox \voidb@x \hbox {COV} \left ( \unhbox \voidb@x \hbox {MMD}_i^2 (B) ,\unhbox \voidb@x \hbox { MMD}_j^2(B+k) \right ) $}{12}{subsubsection.2.1.6}}
