\relax 
\providecommand\hyper@newdestlabel[2]{}
\providecommand\HyperFirstAtBeginDocument{\AtBeginDocument}
\HyperFirstAtBeginDocument{\ifx\hyper@anchor\@undefined
\global\let\oldcontentsline\contentsline
\gdef\contentsline#1#2#3#4{\oldcontentsline{#1}{#2}{#3}}
\global\let\oldnewlabel\newlabel
\gdef\newlabel#1#2{\newlabelxx{#1}#2}
\gdef\newlabelxx#1#2#3#4#5#6{\oldnewlabel{#1}{{#2}{#3}}}
\AtEndDocument{\ifx\hyper@anchor\@undefined
\let\contentsline\oldcontentsline
\let\newlabel\oldnewlabel
\fi}
\fi}
\global\let\hyper@last\relax 
\gdef\HyperFirstAtBeginDocument#1{#1}
\providecommand\HyField@AuxAddToFields[1]{}
\providecommand\HyField@AuxAddToCoFields[2]{}
\select@language{english}
\@writefile{toc}{\select@language{english}}
\@writefile{lof}{\select@language{english}}
\@writefile{lot}{\select@language{english}}
\@writefile{toc}{\contentsline {section}{\numberline {1}MMD test}{1}{section.1}}
\@writefile{toc}{\contentsline {subsection}{\numberline {1.1}Description}{1}{subsection.1.1}}
\@writefile{toc}{\contentsline {subsection}{\numberline {1.2}Synthetic Data}{1}{subsection.1.2}}
\@writefile{lof}{\contentsline {figure}{\numberline {1}{\ignorespaces No change points\relax }}{1}{figure.caption.1}}
\@writefile{lof}{\contentsline {figure}{\numberline {2}{\ignorespaces Mean changes from 0 to 1\relax }}{2}{figure.caption.2}}
\@writefile{lof}{\contentsline {figure}{\numberline {3}{\ignorespaces Mean changes from 0 to 5\relax }}{2}{figure.caption.3}}
\@writefile{lof}{\contentsline {figure}{\numberline {4}{\ignorespaces Standard variance changes from 1 to 2\relax }}{3}{figure.caption.4}}
\@writefile{lof}{\contentsline {figure}{\numberline {5}{\ignorespaces Standard variance changes from 1 to 5\relax }}{3}{figure.caption.5}}
\@writefile{lof}{\contentsline {figure}{\numberline {6}{\ignorespaces Exponential mean changes from 1 to 5\relax }}{4}{figure.caption.6}}
\@writefile{toc}{\contentsline {section}{\numberline {2}B-test}{5}{section.2}}
\@writefile{toc}{\contentsline {subsection}{\numberline {2.1}Case1: No sliding windows}{5}{subsection.2.1}}
\@writefile{lof}{\contentsline {figure}{\numberline {7}{\ignorespaces Colormap: kernel matrix\relax }}{5}{figure.caption.7}}
\@writefile{lof}{\contentsline {figure}{\numberline {8}{\ignorespaces Choosing different block sizes\relax }}{6}{figure.caption.8}}
\@writefile{lof}{\contentsline {figure}{\numberline {9}{\ignorespaces Colormap: kernel matrix\relax }}{7}{figure.caption.9}}
\@writefile{lof}{\contentsline {figure}{\numberline {10}{\ignorespaces Choosing different block sizes\relax }}{8}{figure.caption.10}}
\@writefile{lof}{\contentsline {figure}{\numberline {11}{\ignorespaces Colormap: kernel matrix\relax }}{9}{figure.caption.11}}
\@writefile{lof}{\contentsline {figure}{\numberline {12}{\ignorespaces Choosing different block sizes\relax }}{10}{figure.caption.12}}
\@writefile{toc}{\contentsline {subsection}{\numberline {2.2}Case2: With Sliding Windows}{10}{subsection.2.2}}
\@writefile{lof}{\contentsline {figure}{\numberline {13}{\ignorespaces Colormap: kernel matrix\relax }}{11}{figure.caption.13}}
\@writefile{lof}{\contentsline {figure}{\numberline {14}{\ignorespaces Choosing different block sizes B. Window length $W=300$\relax }}{12}{figure.caption.14}}
\@writefile{lof}{\contentsline {figure}{\numberline {15}{\ignorespaces Colormap: kernel matrix\relax }}{13}{figure.caption.15}}
\@writefile{lof}{\contentsline {figure}{\numberline {16}{\ignorespaces Choosing different block sizes B. Window length $W=300$\relax }}{14}{figure.caption.16}}
\@writefile{lof}{\contentsline {figure}{\numberline {17}{\ignorespaces Colormap: kernel matrix\relax }}{15}{figure.caption.17}}
\@writefile{lof}{\contentsline {figure}{\numberline {18}{\ignorespaces Choosing different block sizes B. Window length $W=300$\relax }}{16}{figure.caption.18}}
