\relax 
\providecommand\hyper@newdestlabel[2]{}
\providecommand\HyperFirstAtBeginDocument{\AtBeginDocument}
\HyperFirstAtBeginDocument{\ifx\hyper@anchor\@undefined
\global\let\oldcontentsline\contentsline
\gdef\contentsline#1#2#3#4{\oldcontentsline{#1}{#2}{#3}}
\global\let\oldnewlabel\newlabel
\gdef\newlabel#1#2{\newlabelxx{#1}#2}
\gdef\newlabelxx#1#2#3#4#5#6{\oldnewlabel{#1}{{#2}{#3}}}
\AtEndDocument{\ifx\hyper@anchor\@undefined
\let\contentsline\oldcontentsline
\let\newlabel\oldnewlabel
\fi}
\fi}
\global\let\hyper@last\relax 
\gdef\HyperFirstAtBeginDocument#1{#1}
\providecommand\HyField@AuxAddToFields[1]{}
\providecommand\HyField@AuxAddToCoFields[2]{}
\select@language{english}
\@writefile{toc}{\select@language{english}}
\@writefile{lof}{\select@language{english}}
\@writefile{lot}{\select@language{english}}
\@writefile{toc}{\contentsline {section}{\numberline {1}Background}{1}{section.1}}
\@writefile{toc}{\contentsline {section}{\numberline {2}B test}{2}{section.2}}
\@writefile{toc}{\contentsline {subsection}{\numberline {2.1}The Asymptotic Distribution}{3}{subsection.2.1}}
\@writefile{toc}{\contentsline {subsubsection}{\numberline {2.1.1}$ \unhbox \voidb@x \hbox {Var} \left ( \unhbox \voidb@x \hbox {MMD}_i^2(B) \right ) $}{3}{subsubsection.2.1.1}}
\@writefile{toc}{\contentsline {subsubsection}{\numberline {2.1.2}$ \unhbox \voidb@x \hbox {Cov} \left ( \unhbox \voidb@x \hbox {MMD}_i^2(B), \unhbox \voidb@x \hbox { MMD}_{i+s}^2 (B) \right ) $}{3}{subsubsection.2.1.2}}
\@writefile{toc}{\contentsline {subsubsection}{\numberline {2.1.3}$ \unhbox \voidb@x \hbox {Cov} \left ( \unhbox \voidb@x \hbox {MMD}_i^2(B), \unhbox \voidb@x \hbox { MMD}_{i+s}^2 (B+k) \right ) $}{4}{subsubsection.2.1.3}}
\@writefile{toc}{\contentsline {subsection}{\numberline {2.2}Asymptotic Distribution}{6}{subsection.2.2}}
\@writefile{toc}{\contentsline {subsubsection}{\numberline {2.2.1}$\unhbox \voidb@x \hbox {Var}(Z_B)$}{6}{subsubsection.2.2.1}}
\@writefile{toc}{\contentsline {subsubsection}{\numberline {2.2.2}$\unhbox \voidb@x \hbox {Cov}(Z_B,Z_T)$}{6}{subsubsection.2.2.2}}
\@writefile{toc}{\contentsline {subsubsection}{\numberline {2.2.3}Gaussian Approximation}{7}{subsubsection.2.2.3}}
\@writefile{lof}{\contentsline {figure}{\numberline {1}{\ignorespaces Normality of $Z_B$\relax }}{8}{figure.caption.1}}
\@writefile{toc}{\contentsline {subsubsection}{\numberline {2.2.4}Large Deviation}{8}{subsubsection.2.2.4}}
\@writefile{toc}{\contentsline {subsubsection}{\numberline {2.2.5}Local Field}{8}{subsubsection.2.2.5}}
\@writefile{toc}{\contentsline {subsubsection}{\numberline {2.2.6}Approximate $ \mathbb  {E}_B \{ l_T-l_B \}$ in terms of the difference in block size}{11}{subsubsection.2.2.6}}
\@writefile{toc}{\contentsline {subsubsection}{\numberline {2.2.7}From Local to Global}{13}{subsubsection.2.2.7}}
\@writefile{toc}{\contentsline {subsubsection}{\numberline {2.2.8}Tail Probability}{14}{subsubsection.2.2.8}}
