\BOOKMARK [1][-]{section.1}{Background}{}% 1
\BOOKMARK [1][-]{section.2}{B test}{}% 2
\BOOKMARK [2][-]{subsection.2.1}{The Asymptotic Distribution}{section.2}% 3
\BOOKMARK [3][-]{subsubsection.2.1.1}{ Var \( MMDi2\(B\) \) }{subsection.2.1}% 4
\BOOKMARK [3][-]{subsubsection.2.1.2}{ Cov \( MMDi2\(B\), \040MMDi+s2 \(B\) \) }{subsection.2.1}% 5
\BOOKMARK [3][-]{subsubsection.2.1.3}{ Cov \( MMDi2\(B\), \040MMDi+s2 \(B+k\) \) }{subsection.2.1}% 6
\BOOKMARK [2][-]{subsection.2.2}{Asymptotic Distribution}{section.2}% 7
\BOOKMARK [3][-]{subsubsection.2.2.1}{Var\(ZB\)}{subsection.2.2}% 8
\BOOKMARK [3][-]{subsubsection.2.2.2}{Cov\(ZB,ZT\)}{subsection.2.2}% 9
\BOOKMARK [3][-]{subsubsection.2.2.3}{Gaussian Approximation}{subsection.2.2}% 10
\BOOKMARK [3][-]{subsubsection.2.2.4}{Large Deviation}{subsection.2.2}% 11
\BOOKMARK [3][-]{subsubsection.2.2.5}{Local Field}{subsection.2.2}% 12
\BOOKMARK [3][-]{subsubsection.2.2.6}{Approximate \040EB \173 lT-lB \175 in terms of the difference in block size}{subsection.2.2}% 13
\BOOKMARK [3][-]{subsubsection.2.2.7}{From Local to Global}{subsection.2.2}% 14
\BOOKMARK [3][-]{subsubsection.2.2.8}{Tail Probability}{subsection.2.2}% 15
