\relax 
\providecommand\hyper@newdestlabel[2]{}
\providecommand\HyperFirstAtBeginDocument{\AtBeginDocument}
\HyperFirstAtBeginDocument{\ifx\hyper@anchor\@undefined
\global\let\oldcontentsline\contentsline
\gdef\contentsline#1#2#3#4{\oldcontentsline{#1}{#2}{#3}}
\global\let\oldnewlabel\newlabel
\gdef\newlabel#1#2{\newlabelxx{#1}#2}
\gdef\newlabelxx#1#2#3#4#5#6{\oldnewlabel{#1}{{#2}{#3}}}
\AtEndDocument{\ifx\hyper@anchor\@undefined
\let\contentsline\oldcontentsline
\let\newlabel\oldnewlabel
\fi}
\fi}
\global\let\hyper@last\relax 
\gdef\HyperFirstAtBeginDocument#1{#1}
\providecommand\HyField@AuxAddToFields[1]{}
\providecommand\HyField@AuxAddToCoFields[2]{}
\select@language{english}
\@writefile{toc}{\select@language{english}}
\@writefile{lof}{\select@language{english}}
\@writefile{lot}{\select@language{english}}
\@writefile{toc}{\contentsline {subsubsection}{\numberline {0.0.1}Gaussian Approximation}{8}{subsubsection.0.0.1}}
\@writefile{toc}{\contentsline {subsubsection}{\numberline {0.0.2}Large Deviation}{9}{subsubsection.0.0.2}}
\@writefile{toc}{\contentsline {subsubsection}{\numberline {0.0.3}Local Field}{9}{subsubsection.0.0.3}}
\@writefile{toc}{\contentsline {subsubsection}{\numberline {0.0.4}Approximate $ \mathbb  {E}_B \{ l_T-l_B \}$ in terms of the difference in block size}{10}{subsubsection.0.0.4}}
\@writefile{toc}{\contentsline {subsubsection}{\numberline {0.0.5}From Local to Global}{11}{subsubsection.0.0.5}}
\@writefile{toc}{\contentsline {subsubsection}{\numberline {0.0.6}Tail Probability}{11}{subsubsection.0.0.6}}
\@writefile{toc}{\contentsline {subsection}{\numberline {0.1}Tuning the maximum block size }{12}{subsection.0.1}}
\@writefile{lof}{\contentsline {figure}{\numberline {1}{\ignorespaces m=10\relax }}{12}{figure.caption.7}}
\@writefile{lof}{\contentsline {figure}{\numberline {2}{\ignorespaces m=20\relax }}{13}{figure.caption.8}}
\@writefile{lof}{\contentsline {figure}{\numberline {3}{\ignorespaces m=50\relax }}{13}{figure.caption.9}}
\@writefile{lof}{\contentsline {figure}{\numberline {4}{\ignorespaces Model\relax }}{16}{figure.caption.13}}
